[
    {
        "job_title": "Junior Site Reliability Engineer-US",
        "company_name": "Zortech Solutions",
        "company_logo": "https://media.licdn.com/dms/image/C4E0BAQFLYN9bJoNeQg/company-logo_100_100/0/1570462760656?e=2147483647&v=beta&t=kcFWriA8Saq_l2G59fyDnLgf9CTYsn8LeY0is-2Tni4",
        "listing_details": "Seniority level: Mid-Senior level, Employment type: Contract, Job function: Engineering and Information Technology, Industries: Human Resources Services",
        "description": "Role: Junior Site Reliability EngineerLocation: Rancho Cucamonga, CA-Onsite from Day 1Duration: 6+ MonthsJob DescriptionDesign, develop, and maintain integration flows using an array of different platforms, APIs, databases, protocols, and data formats.Collaborate and review code with other developers in engineering and sales operations to ensure each integration maintains a consistent level of technical standards as set by the team.Work directly with Business Systems Analysts to ensure that the data and the business processes that intersect in the Enterprise Applications ecosystem are as efficient and high fidelity as possible.",
        "location": "Rancho Cucamonga, CA",
        "date": "05/09/2023 03:29PM",
        "url": "https://www.linkedin.com/jobs/view/junior-site-reliability-engineer-us-at-zortech-solutions-3603854471?refId=czKdvjWU55BQ%2BXrQ4%2FNG%2Fw%3D%3D&trackingId=KV9tHIFK0QOiyOy%2FWMg9%2BA%3D%3D&position=11&pageNum=0&trk=public_jobs_jserp-result_search-card"
    },
    {
        "job_title": "Devops engineer",
        "company_name": "Adame Services",
        "company_logo": "https://media.licdn.com/dms/image/C4E0BAQEz64NZDU7eGw/company-logo_100_100/0/1632688622444?e=2147483647&v=beta&t=NEMadsMzekC7UDxNYHwwMfy_1S1iaA2EwHu9rEZzGOA",
        "listing_details": "Seniority level: Mid-Senior level, Employment type: Full-time, Job function: Engineering and Information Technology, Industries: Staffing and Recruiting",
        "description": "DevOps EngineerDevOps Engineer Job ResponsibilitiesDevelops and maintains mission-critical information extraction, analysis, and management systems.Implements streaming analysis algorithms to generate question focused data sets (QFDs).Provides direct and responsive support for urgent analytic needs.Participates in architecture and software development activities.Translates loosely defined requirements into solutions.Uses open source technologies and tools to accomplish specific use cases encountered within the project.Uses coding languages or scripting methodologies to solve a problem with a custom workflow.Collaborates with others on the project to brainstorm about the best way to tackle a complex technological infrastructure, security, or development problem.Performs incremental testing actions on code, processes, and deployments to identify ways to streamline execution and minimize errors encountered.DevOps Engineer Qualifications/SkillsExcellent oral and written communication skills with a keen sense of customer serviceExcellent problem-solving and troubleshooting skillsProcess-oriented with great documentation skillsKnowledge of best practices and IT operations in an always-up, always-available serviceExperience with or knowledge of Agile Software Development methodologiesEducation, Experience, And Licensing RequirementsBS in Computer Science, IT, IS, or equivalent area of technical study (IT experience can substitute for a BS degree)Familiarity with container orchestration services, especially KubernetesFamiliarity with agile software development in Go, C/C++, Java, JavaScriptExperience administering and deploying development CI/CD tools such as Git, Jira, GitLab, or JenkinsSignificant experience with Windows and Linux operating system environmentsExperience with infrastructure scripting solutions such as PowerShell or Python",
        "location": "United States",
        "date": "07/09/2023 03:29PM",
        "url": "https://www.linkedin.com/jobs/view/devops-engineer-at-adame-services-3638002219?refId=czKdvjWU55BQ%2BXrQ4%2FNG%2Fw%3D%3D&trackingId=4TmiOdbIHH4A2AoXVvPJFg%3D%3D&position=12&pageNum=0&trk=public_jobs_jserp-result_search-card"
    },
    {
        "job_title": "Junior DevOps Engineer",
        "company_name": "GliaCell Technologies",
        "company_logo": "https://media.licdn.com/dms/image/C4D0BAQFaa2wszqjcdw/company-logo_100_100/0/1624468622195?e=2147483647&v=beta&t=fSYV21hpkNvYlDlyd-ZjaLugjcw-HdHiCcITPVILbEI",
        "listing_details": "Seniority level: Mid-Senior level, Employment type: Full-time, Job function: Engineering and Information Technology, Industries: Software Development",
        "description": "Are you a Junior DevOps Engineer who is ready for a new challenge that will launch your career to the next level? Tired of being treated like a company drone? Tired of promised adventures during the hiring phase, then dropped off on a remote contract and never seen or heard from the mothership again? Our engineers were certainly tired of the same.At GliaCell our slogan is \"We make It happen\". We will immerse you in the latest technologies. We will develop and support your own personalized training program to continue your individual growth. We will provide you with work that matters with our mission focused customers, and surround you with a family of brilliant engineers.Culture isn't something you need to talk about...if it just exists.If this sounds interesting to you, then we'd like to have a discussion regarding your next adventure! If you want to be a drone, this isn't the place for you.We Make It Happen!GliaCell Technologies focuses on Software & System Engineering in Enterprise and Cyber Security solution spaces. We excel at delivering stable and reliable software solutions using Agile Software Development principles. These provide us the capability to deliver a quick turn-around using interactive applications and the integration of industry standard software stacks.GliaCell's Enterprise capabilities include Full-Stack Application Development, Big Data, Cloud Technologies, Analytics, Machine Learning, AI, and DevOps Containerization. We also provide customer solutions in the areas of CND, CNE, and CNO by providing our customers with assessments and solutions in Threat Mitigation, Vulnerability Exposure, Penetration Testing, Threat Hunting, and Preventing Advanced Persistent Threat.We Offer Long term job security Competitive salaries & bonus opportunities Challenging work you are passionate about Ability to work with some amazingly talented peopleJob DescriptionGliaCell is seeking a Junior DevOps Engineer on one of our subcontracts. This is a full-time position offering the opportunity to support a U.S. Government customer. The mission is to provide technical expertise that assists in sustaining critical mission-related software and systems to a large government contract.Key Responsibilities Provide support for deploying and maintaining software on existing systems. Support migrating deployments to new cloud systems. Research, design, implement, and manage software deployments including CI/CD processes. Identify areas for modification in existing systems and subsequently developing these modifications within the contract. Work closely with developers, platform maintainers and systems analysts.Key RequirementsTo be considered for this position you must have the following: Possess an active or rein-statable TS/SCI with Polygraph security clearance. U.S. Citizenship. 0+ years of Software/System Engineering experience and a BS Degree in Computer Science (or related). 5 years of Software/System Engineering experience may be substituted for a technical bachelor's degree. Works well independently as well as on a team. Strong communication skills.Key Skills Kubernetes, Docker, Docker-compose, Helm, Git, Gitlab, Gitlab runners, Experience using Rancher, Linux command line tools.Desired Experience with dockerized microservice architecture. Experience with AWS Tools such as CloudFormation, EC2 instances, S3, ECS, EKS.Location: Columbia, MD + Partial TeleworkSalary: Based on Education, Years of Experience, Skill and AbilitiesCheck Out Our Benefits Paid Time Off Medical, Dental & Vision Benefits Life & Disability Insurances Tuition, Training & Certification Reimbursement 401K Contribution Employee Referral Bonus Program Equipment Reimbursement Team Engagement & Outings SwagAnd more!Learn more about GliaCell Technologies: https://gliacelltechnologies.applytojob.com/apply/To apply for this position, respond to this job posting and attach an updated resume for us to review.GliaCell Technologies, LLC is an Equal Opportunity/Affirmative Action Employer. All qualified applicants will receive consideration for employment without regard to race, color, religion, sex, sexual orientation, gender identity, national origin, age, protected veteran status, or disability status.Powered by JazzHR",
        "location": "Simpsonville, MD",
        "date": "10/07/2023 03:29PM",
        "url": "https://www.adzuna.com/land/ad/4357932983?v=4CA01B87535B3CE7A5044FD9944079583B8524FC&r=14549216&ccd=f7e1c3e83f4f9b07e3c3038902367f1a&frd=f66760aafda7170d73fc01b21979324f&utm_source=linkedin5&utm_medium=ppc&partnerb=1&chnlid=696&a=e"
    },
    {
        "job_title": "DevOps Engineer (Entry Level) -  US/Canada",
        "company_name": "Patterned Learning AI - Tech Recruitment & Staffing",
        "company_logo": "https://media.licdn.com/dms/image/D4E0BAQHD9EjpPPV0Cw/company-logo_100_100/0/1696595026655?e=2147483647&v=beta&t=XaZPEW_Cu7tJvunUe-Yo8tM9n-HVbKpyEEmgEeyrIG4",
        "listing_details": "Seniority level: Entry level, Employment type: Full-time, Job function: Engineering and Information Technology, Industries: IT Services and IT Consulting",
        "description": "DevOps Engineer (Entry Level)- US/Canada Residents only, Full-Time, Salary $62K-$77K Minimum 1 year of work experience - fully remote position. Freshers are also encouraged to apply.About us: The Future of AI is Patterned We are a stealth-mode technology startup that is revolutionizing the way AI is used. Our platform uses pattern recognition to train AI models that are more accurate, efficient, and robust than ever before.We are backed by top investors and we are hiring for almost everything! If you are passionate about AI and want to be a part of something big, then we want to hear from you.Make a positive impact on the world. Be a part of a fast-growing startup. If you are interested in learning more, please visit our website.We Are Looking For People Who ArePassionate about AI.Excellent problem solvers.Team players.Driven to succeed.RequirementsMore About The Role & TeamWe are seeking a skilled and experienced Software DevOps Engineer to join our team. As a Software DevOps Engineer, you will be responsible for building and maintaining the infrastructure, tools, and processes required for continuous integration, delivery, and deployment of software applications. You will work closely with software engineers, quality assurance engineers, and system administrators to ensure the software development process is efficient, reliable, and scalable. The ideal candidate should have strong technical skills, hands-on experience with DevOps tools and technologies, and a passion for automation and continuous improvement. Development teams at Patterned Learning consist of intelligent, driven, and dedicated individuals across disciplines who are passionate about what they do and committed to each other\u2019s success.What skills and experience do I need to succeed?You will need to have proven experience delivering commercial software applications.You will need hands-on experience with DevOps tools and technologies such as Jenkins, Octopus, Kubernetes, and Git. Experience with cloud-based infrastructure and services, preferably Azure is essential.About The Job RequirementsDevOps EngineeringWeb development (HTML, CSS, Angular)Software EngineeringContent Management SystemsDatabases and Structured DataFlexible and adaptable with the ability to align to changing prioritiesIf you may have worked as a \u2018Software Engineer\u2019, \u2018DevOps Engineer\u2019, or 'Software Developer, you can definitely apply for the post!!BenefitsSpecial Benefits you will love:Flexible vacation paid unlimited holidays and paid sick days401(k) with up to 2% employer matchHealth, vision, and dental insuranceWhy Patterned Learning AI?Patterned Learning AI is made up of incredibly bright, mission-driven coworkers who are passionate about using technology to solve real-world problems---and we're growing quickly. In order to continue building an engaging and dynamic organization, we're committed to giving everyone the support they need to do great work.We believe diverse perspectives and backgrounds are critical to building great technology, and our goal is to cultivate an environment where people feel equally valued and respected. Patterned Learning AI is proud to be an equal opportunity workplace, and we welcome applicants from all backgrounds regardless of race, color, ancestry, religion, gender identity or expression, sexual orientation, marital status, age, citizenship, socioeconomic status, disability, or veteran status",
        "location": "Tampa, FL",
        "date": "10/09/2023 03:29PM",
        "url": "https://jobs.gohire.io/patterned-learning-ai-b9qwy5ki/devops-engineer-entry-level-us-canada-147581/"
    },
    {
        "job_title": "Senior DevOps Engineer",
        "company_name": "Steneral Consulting",
        "company_logo": "https://media.licdn.com/dms/image/C4D0BAQFf8Av6ocbFLg/company-logo_100_100/0/1651682509720?e=2147483647&v=beta&t=YIDPCufEZIffLIBiIdvTgApyExfxzhG3QSTIM5ijHzI",
        "listing_details": "Seniority level: Mid-Senior level, Employment type: Contract, Job function: Engineering and Information Technology, Industries: Software Development",
        "description": "RemoteWill need DL and valid LinkedIn with submission.10+ Year candidates onlyDescriptionRecommends new technologies based upon business value drivers and return on investment; drives new technologies towards implementation and exploitation.Work with other DevOps Engineers to understand existing CI/CD pipeline, system architecture, application components, and open source tools that need to be migrated to cloud.Responsible for maintaining and enhancing CI/CD pipeline and management components including monitoring, logging, test automation tools, and other COTS products.Works with the scrum team to understand the build, deliver process of software releases through CI/CD, and identify opportunities to increase engineering efficiency of getting code to production with high quality on a cloud-hosted environment.Automate common operations on critical systems in a safe and reliable manner and implement deployment best practices, auditing, logging, security controls, and continuous monitoring using CMS approved cloud services.Working experience of Elastic Kubernetes Services (Amazon EKS), Elastic Container Services (ECS), AWS Code Build, AWS Code Pipeline, and other CMS approved cloud services.Contributes to the holistic vision of Enterprise Architecture.Competently contributes technical expertise to enterprise programs and projects;Requires Bachelor's degree in related field; 5 years of experience in architecture/design in relevant technology disciplines; or any combination of education and experience, which would provide an equivalent background. MS/MA degree preferred. 10 years of experience in information technologies and/or 6 years of experience in health care industry preferred. Proficiency in Content management and workflow systems, Data center architecture, Mobile infrastructure, Virtualization and Voice Infrastructure preferred.Experience and knowledge on DevOps practices and tools for automating builds and deploymentsExperience with container-based technologies like Docker and container orchestration platformsVersioning and Git based source controlConfiguration management of Cloud based resourcesBootstrapping and automating the build of complete environmentsInfrastructure provisioning tool: TerraformMonitoring tools like Splunk, AWS CloudWatch, NewrelicUnderstanding of security best practices and DEVSecOPS pipelineDesigning and communicating custom workflows, run books, and response documentsProviding scripted solutions to unique scenariosBuild Servers and Tools: Jenkins, GitHubDependency Management tools: MavenConfiguration Management tools: AnsibleExperience with automating various processes end-to-end.Strong Linux skills: RHEL6, RHEL7Recommended SkillsAgile-based knowledge and skill.Familiarity with open source software stacksAWS Solutions Architect Certification or AWS Sys Ops Administrator",
        "location": "United States",
        "date": "10/09/2023 03:30PM",
        "url": "https://www.linkedin.com/jobs/view/senior-devops-engineer-at-steneral-consulting-3734733471?refId=czKdvjWU55BQ%2BXrQ4%2FNG%2Fw%3D%3D&trackingId=anV16q%2FQjX0WAD2r7eFX9w%3D%3D&position=15&pageNum=0&trk=public_jobs_jserp-result_search-card"
    },
    {
        "job_title": "DevOps Engineer",
        "company_name": "Cyberjin",
        "company_logo": "https://media.licdn.com/dms/image/D4E0BAQG-TnWKqrYmdA/company-logo_100_100/0/1694539276201?e=2147483647&v=beta&t=b6YfuPVQKIVk1CmRe1IOkGyw87B_CxyzZvVVLb4fOXw",
        "listing_details": "Seniority level: Mid-Senior level, Employment type: Full-time, Job function: Engineering and Information Technology, Industries: Internet Publishing",
        "description": "Hybrid RoleLooking for a DevOps Engineer with prior experience with Big Data Solutions, Cloud technology, and strong working knowledge of Linux. Passionate about the concept of infrastructure as code and leverages modern tools to define, build and manage virtual infrastructure in the cloud. Work is performed in a hybrid environment with a great team.Essential Job ResponsibilitiesThe ideal candidate believes in exploring alternatives and quickly prototyping to validate hypothetical architectures or solutions.Will significantly contribute to the development of custom software components and integration of open source code to address complex time series analysis problems through the use of cutting edge Big Data/ Cloud technology. Design, implement, and maintain core architecture and capabilities for software from prototype to operational applications.Must understand software engineering fundamentals, OO programming, relational and time series databases, scripting knowledge and a basic level of development operations (DevOps) skill set.Minimum QualificationsSecurity Clearance - A current Secret is required and therefore all candidates must be a U.S. citizen.5+ years of experience in DevOps Engineering or Software Development (Java preferred) and Bachelors in related field; or 3 years relevant experience with Masters in related field; or High School Diploma or equivalent and 9 years relevant experience.Have a strong working knowledge of Linux systems, hosts, storage, networks, security, applications and proficiency in shell scripting (Shell/Bash, JavaScript, Python).Excellent oral and written communication skills.Must have a Security+ certification.Must be able to work in a hybrid environment.Preferred RequirementsMust have experience with big data technologies such as Hadoop and NoSQL Databases. Experience with AWS is highly desired.Prior experience or familiarity with Unified Platform (UP) Big Data Platform (formerly owned by DISA) is a plus.Data parsing/transforming techniques to include JSON, XML, CSV formats.Understanding of AGILE software development methodologies and use of standard software development tool suites. (e.g., JIRA, Confluence, Github Enterprise, etc.)Willing to do on-call/pager duty is a big plus. Possible rotating shift in the future for this role as the current team is full.Powered by JazzHRd0KjJwIGOu",
        "location": "Washington, DC",
        "date": "10/06/2023 03:30PM",
        "url": "https://www.linkedin.com/jobs/view/devops-engineer-at-cyberjin-3735223457?refId=czKdvjWU55BQ%2BXrQ4%2FNG%2Fw%3D%3D&trackingId=B2yfa0wGWkcAGGzT3dMtJA%3D%3D&position=16&pageNum=0&trk=public_jobs_jserp-result_search-card"
    },
    {
        "job_title": "Junior DevOps Engineer",
        "company_name": "Fusion Technology LLC",
        "company_logo": "https://media.licdn.com/dms/image/C510BAQGwbSzcFn8mRQ/company-logo_100_100/0/1519876137403?e=2147483647&v=beta&t=wZ5LGE3qxim8yasQnrvQKFbYX6EU4RHD093SebYGH0k",
        "listing_details": "Seniority level: Entry level, Employment type: Full-time, Job function: Engineering and Information Technology, Industries: Internet Publishing",
        "description": "Who is Fusion Technology?Fusion Technology is a performance-driven HUBZone Small Business concern residing in the heart of the beautiful mountainsides of West Virginia, steps away from the Federal Bureau of Investigation's Criminal Justice Information Services Division's Headquarters. Founded in 2007 by an Engineer-by-trade, Fusion Technology dedicates our valuable resources to providing comprehensive IT services and solutions to mission-critical US Government programs and the Intel Community.What we do:The National Oceanic and Atmospheric Administration (NOAA) is a bureau within the Department of Commerce (DOC) focused on understanding and predicting changes in the Earth's environment. The demand for NOAA\u2019s products and information continues to grow as global climate change and the threat of natural disasters remain at the forefront of the Nation\u2019s attention. Fusion Technology aims to protect the delivery of this critical demand by modernizing NOAA\u2019s IT security infrastructure, increasing security awareness throughout the department, and coordinating security efforts with the intelligence community and stakeholders.Primary Responsibilities:The candidate will work to:Develop a comprehensive understanding of SIEM, LogStream products, and use cases.Identify and address technical issues by finding the root cause, formulating solutions or workarounds, and guiding customers efficiently, accurately, and professionallyHelp roll out, troubleshoot, and manage supported LogStream resources agency-wide.Address inbound support questions for enterprise customersAssist with SIEM integrations and log onboarding tasks.Ability to communicate well both verbally and in writing to technical and non-technical audiences of various levels within the enterprise or outside the organization.Basic Qualifications:To be successful in this role, you must have the following:Experience with building data pipelines.Experience administering Linux operating system.Ability to troubleshoot moderate to complex problems.Basic understanding of networking and networking concepts.Understanding of configuration management concepts and principals.Ability to present technical details to non-technical personnel.Passion for working with large volumes of data in fast-paced environments. The ideal candidate will also possess the following skills:Experience structuring data using Cribl.Experience with Java Script (Highly Preferred.)Experience with Regular Expressions.Experience with writing reusable codeClearance:Must be a US CitizenPossess an interim or active Secret clearanceEDUCATION & EXPERIENCE: Minimum BS degree with 2+ years of prior relevant experienceMinimum Cribl Administrator Certification.Bonus points/Nice-to-Haves:Cribl Engineer CertificationExperience with Logs, Metrics, IT Operations and Security What we do:Travel:Yes, 25% of the timeScheduled Weekly Hours:40Shift:DayTelework/Remote:Yes, 75% telework. What Matters To You Matters To Us.Fusion Technology values its employees and works hard to ensure proper care for them and their families. We desire to compensate employees in a competitive, motivational, fair, and equitable way with other employers in the marketplace. Salary is only one component of employee compensation but an integral part of recruiting and retaining qualified employees. However, at Fusion Technology, we take a comprehensive approach and consider each employee's needs to tailor a compensation plan that provides financial security and peace of mind. Our competitive package includes a best-in-class matching 401K program, comprehensive Cigna healthcare plan, a competitive employer contribution to a health savings account, vision and dental plans, life insurance, short- and long-term disability, and personal leave, in addition to paid certifications and training.Fusion Technology LLC is an Equal Opportunity Employer. We respect and seek to empower each individual and support the diverse cultures, perspectives, skills, and experiences within our workforce. Qualified applicants will receive consideration for employment without regard to sex, race, ethnicity, age, national origin, citizenship, religion, physical or mental disability, medical condition, genetic information, pregnancy, family structure, marital status, ancestry, domestic partner status, sexual orientation, gender identity or expression, veteran or military status, or any other basis prohibited by law.Powered by JazzHRKWgyXwgah1",
        "location": "Washington, DC",
        "date": "07/09/2023 03:30PM",
        "url": "https://www.linkedin.com/jobs/view/junior-devops-engineer-at-fusion-technology-llc-3667204752?refId=czKdvjWU55BQ%2BXrQ4%2FNG%2Fw%3D%3D&trackingId=NXlYXLIjIuBy1zLt7F%2BfdQ%3D%3D&position=17&pageNum=0&trk=public_jobs_jserp-result_search-card"
    },
    {
        "job_title": "Devops Engineer",
        "company_name": "Huntress Talent",
        "company_logo": "https://static.licdn.com/aero-v1/sc/h/9a9u41thxt325ucfh5z8ga4m8",
        "listing_details": "Seniority level: Entry level, Employment type: Full-time, Job function: Engineering and Information Technology, Industries: Staffing and Recruiting",
        "description": "The ideal candidate is self-driven, data-driven, and can work in a distributed team. This professional hold strong knowledge of Site Reliability Engineering and DevOps methodologies related to Delivery solutions & Platform Automation.In this role you will be part of the Site Reliability team, sharing your experience in the field with our Delivery, Support, Product Engineering, and Infrastructure teams. You will simultaneously focus on technical excellence and quickly deliver value to customers who have deployed our software in production. The person who fills this role is a subject matter expert who excels in collaboration, open communication, and reaching across functional borders.\u00a0Key responsibilities: -Show ownership of customer success with the platform management. -Partner with Delivery, Engineering, and Product to steer SRE alignment and strategy to ensure reliability of the platform deployments -Respond to client reliability concerns and agile problem resolution. -Lead teams that design, code, test, and deliver software to ensure application performance and resiliency -Ability to communicate with various customer teams and navigate them with WF best practices (IT, DevOps, Security, Tech). -Strives for environment management automation either by coding it or by leading and influencing developers to build systems that are easy to run in production. -Proactively work on the efficiency and capacity planning to set clear requirements and reduce the system resources usage to make cheaper to run for all our customers. -Identify parts of the system that do not scale, provides immediate palliative measures, and drives long term resolution of these incidents. -Identify Service Level Indicators (SLIs) that will align the team to meet the availability and latency objectives. -Proposes and drives architectural changes that affect the whole company to solve scaling and performance problems -Measure the risk of introduced features to plan and improve the infrastructure.\u00a0Qualifications/Experience: -Bachelor\u2019s degree in Computer Science, related technical field or equivalent practical experience -3+ years of experience with system design, algorithms, data structures, analysis, and software design-Deep knowledge in DevOps tools and practices, Enterprise standards and security.-Knowledge of scripting languages (e.g. shellscript, groovy) and main concepts of Object-Oriented programming (Python or Java is a plus).-Solid knowledge on Ansible and CI/CD.-At least 2 years\u2019 experience with AWS, Azure, GCP cloud technologies (S3 bucket administration; EC2; ELB; Security Groups; IGW; ACLs; etc.)-At least 3 years of SRE experience.",
        "location": "New York, NY",
        "date": "10/09/2021 03:31PM",
        "url": "https://www.linkedin.com/jobs/view/devops-engineer-at-huntress-talent-2713324401?refId=czKdvjWU55BQ%2BXrQ4%2FNG%2Fw%3D%3D&trackingId=eX7OjbRqfc0mPhHZx3uQBg%3D%3D&position=18&pageNum=0&trk=public_jobs_jserp-result_search-card"
    },
    {
        "job_title": "AWS Cloud DevOps Engineer",
        "company_name": "Zortech Solutions",
        "company_logo": "https://media.licdn.com/dms/image/C4E0BAQFLYN9bJoNeQg/company-logo_100_100/0/1570462760656?e=2147483647&v=beta&t=kcFWriA8Saq_l2G59fyDnLgf9CTYsn8LeY0is-2Tni4",
        "listing_details": "Seniority level: Entry level, Employment type: Full-time, Job function: Engineering and Information Technology, Industries: Human Resources Services",
        "description": "Role: AWS Cloud DevOps EngineerLocation: Mountain View, CA (Day one onsite)Duration: FulltimeJob DescriptionLevel: middle (min. 5+ year of experience required)Must have any cloud certificationWe're looking for an AWS Cloud DevOps Engineer in Mountain View, CA. This position will primarily perform day to day DevOps duties.As an AWS Cloud DevOps Engineer, you will be an integral part of the team responsible for delivering cloud solutions for our client. Your duties will include building and automating cloud based applications and environments using various DevOps toolsets and frameworks. You will be performing security remediation and improvements to existing infrastructure. You will also be in a position to advice clients on selecting and implementing various toolsets within their current infrastructure or implementing new automation strategies in the cloud.Candidates must have excellent written and verbal communication skills, with the ability to earn the trust of our AWS customers and partners at any level, from executive to developer. We are looking for a candidate that can help to build and grow our Cloud managed services business.As an AWS Cloud Engineer, you will help to architect and design cloud automation solutions. You will help customers understand and implement application automation and cloud development strategies by engineering solutions that deliver measurable business value using ground breaking technologies in the cloud.ResponsibilitiesProvide leadership and direction of a small DevOps team while primarily working as a DevOps EngineerImprove and or remediate existing AWS accounts infrastructure and resourcesMigrate enterprise workloads to AWS using industry standard as well as proprietary methodologiesAutomate cloud deployments, as well as build CI/CD pipeline to support cloud based workloadsProvide experienced knowledge and/or develop competency on Terraform, Ansible, Cloud native automation toolsStay on top of the latest trends and develop expertise in emerging cloud technologiesRequirements/QualificationsMinimum of 5 years of experience. You have DevOps/Automation experience on Amazon AWSCloud: Amazon AWS, AWS Marketplace, PaaS, IaaS, SaaSPlatforms and tools: Jenkins, Artifactory, Python, Bash and other scripting languagesDevOps/Automation: Terraform, OpsWorks, CloudFormation, Ansible, Chef, PuppetCloud certifications are required; Cloud Solutions Architect-Associate level or above and AWS Specialty certificationsHighly proficient in Microsoft applications including Outlook, PowerPoint, Word, and ExcelExcellent interpersonal and organizational skillsExcellent oral and written communication skills",
        "location": "Mountain View, CA",
        "date": "07/09/2023 03:31PM",
        "url": "https://www.linkedin.com/jobs/view/aws-cloud-devops-engineer-at-zortech-solutions-3632583040?refId=czKdvjWU55BQ%2BXrQ4%2FNG%2Fw%3D%3D&trackingId=SA%2FCSN6eYVTXm0BWMOP57w%3D%3D&position=19&pageNum=0&trk=public_jobs_jserp-result_search-card"
    },
    {
        "job_title": "DevOps Engineer || Remote",
        "company_name": "Steneral Consulting",
        "company_logo": "https://media.licdn.com/dms/image/C4D0BAQFf8Av6ocbFLg/company-logo_100_100/0/1651682509720?e=2147483647&v=beta&t=YIDPCufEZIffLIBiIdvTgApyExfxzhG3QSTIM5ijHzI",
        "listing_details": "Seniority level: Mid-Senior level, Employment type: Contract, Job function: Engineering and Information Technology, Industries: Software Development",
        "description": "Job: DevOps EngineerLocation: RemoteTerm: 6-12+ months ContractTop Skills6+ years of Devops Engineering Experience Experience with multiple languages (Python, Java or C#/.Net)-must have at least 2Agile Azure DevopsSQL ProficiencyRequirements6+ years of DevOps Experience in an enterprise environment Strong command of a formal SDLC methodology Strong command of applicable development tools and languages Strong command of object-oriented fundamentals, including design patterns, encapsulation, abstraction and SOLID development principles Experience with multiple languages (Python, Java or C#/.Net)EDUCATION: Bachelor's degree in Computer Science, Information Systems, related field or equivalent related experience required. DevOps and AgileAzure DevOps SQL proficiency Experience working with multiple database types, including NoSQL, ultrawide and/or time-series databasesExperience with or desire to learn both functional and procedural development a strong plus Experience with Tableau, or PowerBI UX or design thinking a plus Familiarity with ITSM / ITIL Qualification Software Development, DevOps & Site Reliability Estimated ResponsibilitiesUnderstand how the technical landscape supports business operations, and identify the best technologies to support a business need Develop and maintain solutions with a cadence driven by optimizing time-to-value-realization by the business Assist in the implementation of DevOps practices, including a Continuous Integration / Continuous Deployment (CI/CD) environment Develop and maintain architectural guidelines and coding standards to ensure that solutions are reliable, sustainable and scalable Contribute to a healthy team environment, collaborating with various organizations across IT including analytics, database management, and peer developers/analysts as appropriate Ensure solutions are implemented in a manner consistent with MPC corporate policies and IT standards, utilizing appropriate methods, controls and documentation Clearly communicate thoughts, specifications, requirements, and progress with business clients and peers using appropriate means of communication",
        "location": "United States",
        "date": "07/09/2023 03:31PM",
        "url": "https://www.linkedin.com/jobs/view/devops-engineer-remote-at-steneral-consulting-3641973821?refId=czKdvjWU55BQ%2BXrQ4%2FNG%2Fw%3D%3D&trackingId=WF5PhyU1YmwhbBgzJG48MQ%3D%3D&position=20&pageNum=0&trk=public_jobs_jserp-result_search-card"
    }
]